<svg width="15" height="13" viewBox="0 0 15 13" fill="none" xmlns="http://www.w3.org/2000/svg">
<path d="M4.88282 5.4375C4.39063 5.4375 4.00782 5.84766 4.00782 6.3125C4.00782 6.80469 4.39063 7.1875 4.88282 7.1875C5.34766 7.1875 5.75782 6.80469 5.75782 6.3125C5.75782 5.84766 5.34766 5.4375 4.88282 5.4375ZM7.94532 5.4375C7.45313 5.4375 7.07032 5.84766 7.07032 6.3125C7.07032 6.80469 7.45313 7.1875 7.94532 7.1875C8.41016 7.1875 8.82032 6.80469 8.82032 6.3125C8.82032 5.84766 8.41016 5.4375 7.94532 5.4375ZM11.0078 5.4375C10.5156 5.4375 10.1328 5.84766 10.1328 6.3125C10.1328 6.80469 10.5156 7.1875 11.0078 7.1875C11.4727 7.1875 11.8828 6.80469 11.8828 6.3125C11.8828 5.84766 11.4727 5.4375 11.0078 5.4375ZM7.94532 0.625C4.0625 0.625 0.945316 3.19531 0.945316 6.3125C0.945316 7.625 1.46485 8.82812 2.36719 9.78516C1.98438 10.8516 1.13672 11.7812 1.10938 11.7812C0.917973 11.9727 0.890629 12.2461 0.97266 12.4922C1.08204 12.7383 1.32813 12.875 1.60157 12.875C3.26954 12.875 4.60938 12.1914 5.40235 11.6172C6.19532 11.8633 7.04297 12 7.94532 12C11.8008 12 14.9453 9.45703 14.9453 6.3125C14.9453 3.19531 11.8008 0.625 7.94532 0.625ZM7.94532 10.6875C7.20704 10.6875 6.46875 10.5781 5.78516 10.3594L5.15625 10.168L4.63672 10.5508C4.25391 10.8242 3.70704 11.125 3.05079 11.3438C3.26954 11.0156 3.46094 10.6328 3.59766 10.25L3.89844 9.48438L3.32422 8.88281C2.83204 8.36328 2.25782 7.48828 2.25782 6.3125C2.25782 3.90625 4.80079 1.9375 7.94532 1.9375C11.0625 1.9375 13.6328 3.90625 13.6328 6.3125C13.6328 8.74609 11.0625 10.6875 7.94532 10.6875Z" fill="#378BCB"/>
</svg>
