<svg id="download-on-the-app-store-apple_1_" data-name="download-on-the-app-store-apple (1)" xmlns="http://www.w3.org/2000/svg" xmlns:xlink="http://www.w3.org/1999/xlink" width="149" height="44.148" viewBox="0 0 149 44.148">
  <defs>
    <linearGradient id="linear-gradient" x1="-1.199" y1="2.436" x2="-1.199" y2="1.535" gradientUnits="objectBoundingBox">
      <stop offset="0" stop-color="#1a1a1a" stop-opacity="0.102"/>
      <stop offset="0.123" stop-color="#212121" stop-opacity="0.153"/>
      <stop offset="0.308" stop-color="#353535" stop-opacity="0.227"/>
      <stop offset="0.532" stop-color="#575757" stop-opacity="0.318"/>
      <stop offset="0.783" stop-color="#858585" stop-opacity="0.42"/>
      <stop offset="1" stop-color="#b3b3b3" stop-opacity="0.51"/>
    </linearGradient>
  </defs>
  <path id="Path_7302" data-name="Path 7302" d="M150.591,41.515a4.229,4.229,0,0,1-4.234,4.228H7.8a4.234,4.234,0,0,1-4.239-4.228V7.795A4.24,4.24,0,0,1,7.8,3.561H146.356a4.233,4.233,0,0,1,4.234,4.234v33.72Z" transform="translate(-2.579 -2.578)" fill="#fff"/>
  <path id="Path_7303" data-name="Path 7303" d="M143.778,44.148H5.222A5.222,5.222,0,0,1,0,38.937V5.218A5.226,5.226,0,0,1,5.222,0H143.777A5.228,5.228,0,0,1,149,5.218V38.936a5.222,5.222,0,0,1-5.221,5.212Z" fill="#a6a6a6"/>
  <path id="Path_7304" data-name="Path 7304" d="M150.591,41.515a4.229,4.229,0,0,1-4.234,4.228H7.8a4.234,4.234,0,0,1-4.239-4.228V7.795A4.24,4.24,0,0,1,7.8,3.561H146.356a4.233,4.233,0,0,1,4.234,4.234v33.72Z" transform="translate(-2.579 -2.578)"/>
  <path id="Path_7305" data-name="Path 7305" d="M70.34,39.853a6.4,6.4,0,0,1,3.049-5.37,6.557,6.557,0,0,0-5.164-2.791c-2.172-.229-4.279,1.3-5.386,1.3-1.129,0-2.833-1.277-4.669-1.24a6.875,6.875,0,0,0-5.787,3.528c-2.5,4.331-.636,10.7,1.761,14.2,1.2,1.716,2.6,3.629,4.435,3.562,1.794-.073,2.465-1.143,4.63-1.143,2.146,0,2.775,1.143,4.646,1.1,1.926-.03,3.138-1.722,4.3-3.452a14.151,14.151,0,0,0,1.965-4,6.192,6.192,0,0,1-3.777-5.69ZM66.806,29.389a6.3,6.3,0,0,0,1.442-4.514,6.419,6.419,0,0,0-4.15,2.146,5.994,5.994,0,0,0-1.48,4.348A5.3,5.3,0,0,0,66.806,29.389Z" transform="translate(-37.069 -18.011)" fill="#fff"/>
  <path id="Path_7306" data-name="Path 7306" d="M326.323,0H252.108l29.068,44.148h45.146a5.226,5.226,0,0,0,5.222-5.215V5.218A5.227,5.227,0,0,0,326.323,0Z" transform="translate(-182.545)" fill="url(#linear-gradient)"/>
  <g id="Group_8644" data-name="Group 8644" transform="translate(46.855 19.871)">
    <path id="Path_7307" data-name="Path 7307" d="M182.218,86.925h-2.508l-1.374-4.316h-4.775l-1.309,4.316h-2.442l4.732-14.692h2.922l4.753,14.692Zm-4.3-6.126-1.242-3.836q-.2-.588-.741-2.768H175.9q-.219.937-.7,2.768L173.976,80.8Zm16.441.7a6,6,0,0,1-1.469,4.271,4.307,4.307,0,0,1-3.267,1.4,3.27,3.27,0,0,1-3.026-1.5v5.559h-2.354V79.813q0-1.7-.087-3.482h2.071l.131,1.679h.044a4.189,4.189,0,0,1,6.7-.416A5.857,5.857,0,0,1,194.364,81.5Zm-2.4.086a4.367,4.367,0,0,0-.7-2.551,2.412,2.412,0,0,0-2.05-1.046,2.449,2.449,0,0,0-1.58.577,2.678,2.678,0,0,0-.927,1.516,3.073,3.073,0,0,0-.109.716v1.768a2.834,2.834,0,0,0,.709,1.952,2.354,2.354,0,0,0,1.842.8,2.413,2.413,0,0,0,2.071-1.025A4.508,4.508,0,0,0,191.965,81.584Zm14.587-.086a6,6,0,0,1-1.469,4.271,4.309,4.309,0,0,1-3.268,1.4,3.27,3.27,0,0,1-3.026-1.5v5.559h-2.354V79.813q0-1.7-.087-3.482h2.071l.131,1.679h.044a4.19,4.19,0,0,1,6.705-.416A5.863,5.863,0,0,1,206.552,81.5Zm-2.4.086a4.367,4.367,0,0,0-.7-2.551,2.408,2.408,0,0,0-2.047-1.046,2.459,2.459,0,0,0-1.582.577,2.676,2.676,0,0,0-.925,1.516,3.144,3.144,0,0,0-.11.716v1.768a2.843,2.843,0,0,0,.708,1.952,2.359,2.359,0,0,0,1.844.8,2.411,2.411,0,0,0,2.071-1.025A4.508,4.508,0,0,0,204.152,81.584Zm16.027,1.22a3.924,3.924,0,0,1-1.306,3.053,5.791,5.791,0,0,1-4,1.286,6.989,6.989,0,0,1-3.805-.915l.544-1.962a6.551,6.551,0,0,0,3.4.916,3.21,3.21,0,0,0,2.071-.6,1.958,1.958,0,0,0,.743-1.6,2.051,2.051,0,0,0-.612-1.5,5.672,5.672,0,0,0-2.027-1.133q-3.86-1.439-3.861-4.208a3.715,3.715,0,0,1,1.363-2.964,5.389,5.389,0,0,1,3.609-1.156,7.133,7.133,0,0,1,3.336.7l-.591,1.919a5.834,5.834,0,0,0-2.824-.676,2.872,2.872,0,0,0-1.948.611,1.747,1.747,0,0,0-.591,1.331,1.8,1.8,0,0,0,.677,1.439,7.626,7.626,0,0,0,2.136,1.133,7.241,7.241,0,0,1,2.791,1.786A3.722,3.722,0,0,1,220.179,82.8Zm7.8-4.706h-2.6v5.144q0,1.962,1.374,1.961a4.137,4.137,0,0,0,1.046-.109l.065,1.787a5.336,5.336,0,0,1-1.831.261,2.822,2.822,0,0,1-2.181-.851,4.173,4.173,0,0,1-.785-2.856v-5.34h-1.546V76.327h1.546v-1.94l2.312-.7v2.637h2.6Zm11.686,3.443a5.811,5.811,0,0,1-1.4,4.011,4.976,4.976,0,0,1-3.881,1.613,4.744,4.744,0,0,1-3.718-1.546,5.634,5.634,0,0,1-1.385-3.9,5.764,5.764,0,0,1,1.428-4.032,4.95,4.95,0,0,1,3.85-1.57,4.843,4.843,0,0,1,3.749,1.548A5.561,5.561,0,0,1,239.669,81.541Zm-2.441.054a4.743,4.743,0,0,0-.631-2.5,2.331,2.331,0,0,0-2.116-1.262,2.364,2.364,0,0,0-2.159,1.262,4.821,4.821,0,0,0-.632,2.544,4.729,4.729,0,0,0,.632,2.5,2.415,2.415,0,0,0,4.255-.021,4.762,4.762,0,0,0,.65-2.524Zm10.1-3.194a4.1,4.1,0,0,0-.742-.065,2.222,2.222,0,0,0-1.919.938,3.534,3.534,0,0,0-.587,2.092v5.559h-2.354V79.668q0-1.668-.068-3.335H243.7l.086,2.027h.065a3.634,3.634,0,0,1,1.177-1.679,2.847,2.847,0,0,1,1.7-.567,3.78,3.78,0,0,1,.589.043Zm10.53,2.726a5.522,5.522,0,0,1-.086,1.068H250.7a3.072,3.072,0,0,0,1.025,2.4,3.5,3.5,0,0,0,2.31.74,7.814,7.814,0,0,0,2.858-.5l.369,1.633a8.838,8.838,0,0,1-3.553.655,5.151,5.151,0,0,1-3.872-1.448,5.355,5.355,0,0,1-1.406-3.891,6.067,6.067,0,0,1,1.31-3.988,4.513,4.513,0,0,1,3.7-1.7,3.949,3.949,0,0,1,3.469,1.7,5.717,5.717,0,0,1,.934,3.332Zm-2.245-.611a3.186,3.186,0,0,0-.457-1.809,2.056,2.056,0,0,0-1.875-.983,2.232,2.232,0,0,0-1.874.959,3.515,3.515,0,0,0-.7,1.83Z" transform="translate(-169.812 -72.016)" fill="#fff"/>
  </g>
  <g id="Group_8645" data-name="Group 8645" transform="translate(48.234 7.235)">
    <path id="Path_7308" data-name="Path 7308" d="M176.5,33.879a15.037,15.037,0,0,1-1.693-.086v-7.1a12.82,12.82,0,0,1,1.993-.15c2.7,0,3.943,1.328,3.943,3.493C180.743,32.53,179.274,33.879,176.5,33.879Zm.4-6.429a4.725,4.725,0,0,0-.932.075v5.4a6.111,6.111,0,0,0,.782.032,2.558,2.558,0,0,0,2.776-2.892A2.356,2.356,0,0,0,176.895,27.45Zm7.723,6.483a2.478,2.478,0,0,1-2.508-2.678A2.536,2.536,0,0,1,184.7,28.5a2.459,2.459,0,0,1,2.508,2.668,2.551,2.551,0,0,1-2.594,2.763Zm.044-4.586c-.836,0-1.372.782-1.372,1.875,0,1.072.547,1.854,1.361,1.854s1.36-.836,1.36-1.876c0-1.06-.536-1.853-1.349-1.853Zm11.227-.739-1.629,5.207H193.2l-.675-2.261a17.134,17.134,0,0,1-.419-1.681h-.022a11.266,11.266,0,0,1-.417,1.681l-.718,2.261h-1.072l-1.533-5.207h1.189l.59,2.475q.209.884.353,1.671h.022c.085-.438.224-.986.428-1.66l.74-2.485h.943l.708,2.432c.171.59.31,1.168.419,1.715h.031a14.983,14.983,0,0,1,.353-1.715l.633-2.432h1.136Zm6,5.207h-1.157v-2.99c0-.921-.353-1.382-1.05-1.382a1.2,1.2,0,0,0-1.157,1.275v3.1h-1.157V30.1c0-.46-.011-.954-.043-1.489h1.018l.054.8h.032a1.871,1.871,0,0,1,1.651-.91c1.093,0,1.811.836,1.811,2.2Zm3.191,0h-1.158v-7.6h1.158Zm4.22.118a2.479,2.479,0,0,1-2.508-2.678,2.536,2.536,0,0,1,2.593-2.753,2.458,2.458,0,0,1,2.508,2.668,2.55,2.55,0,0,1-2.593,2.763Zm.043-4.586c-.836,0-1.372.782-1.372,1.875,0,1.072.548,1.854,1.359,1.854s1.361-.836,1.361-1.876C210.689,30.14,210.155,29.347,209.34,29.347Zm7.113,4.468-.084-.6h-.031a1.778,1.778,0,0,1-1.523.718,1.514,1.514,0,0,1-1.6-1.532c0-1.285,1.114-1.95,3.043-1.95v-.1c0-.686-.363-1.029-1.081-1.029a2.437,2.437,0,0,0-1.36.386l-.235-.761a3.329,3.329,0,0,1,1.788-.45c1.36,0,2.047.718,2.047,2.154v1.918a7.863,7.863,0,0,0,.075,1.243h-1.044Zm-.159-2.593c-1.285,0-1.93.311-1.93,1.05a.738.738,0,0,0,.794.814,1.108,1.108,0,0,0,1.136-1.06Zm6.747,2.593-.054-.836h-.032a1.746,1.746,0,0,1-1.672.954c-1.256,0-2.185-1.1-2.185-2.657,0-1.628.964-2.775,2.28-2.775a1.565,1.565,0,0,1,1.469.708h.023V26.219h1.158v6.192c0,.5.012.975.043,1.4h-1.03Zm-.171-3.064a1.26,1.26,0,0,0-1.219-1.35c-.858,0-1.383.761-1.383,1.832,0,1.05.544,1.769,1.359,1.769a1.3,1.3,0,0,0,1.242-1.382v-.868Zm8.5,3.182a2.478,2.478,0,0,1-2.507-2.678,2.536,2.536,0,0,1,2.593-2.753,2.458,2.458,0,0,1,2.508,2.668,2.55,2.55,0,0,1-2.594,2.763Zm.043-4.586c-.835,0-1.37.782-1.37,1.875,0,1.072.547,1.854,1.359,1.854s1.361-.836,1.361-1.876c0-1.06-.533-1.853-1.349-1.853Zm8.775,4.468h-1.158v-2.99c0-.921-.353-1.382-1.05-1.382a1.2,1.2,0,0,0-1.156,1.275v3.1h-1.158V30.1c0-.46-.011-.954-.043-1.489h1.018l.054.8h.032a1.87,1.87,0,0,1,1.65-.911c1.093,0,1.812.836,1.812,2.2Zm7.786-4.339H246.7V32c0,.644.223.965.674.965a2.28,2.28,0,0,0,.513-.054l.032.879a2.564,2.564,0,0,1-.9.129c-.912,0-1.458-.5-1.458-1.822V29.476h-.76v-.868h.76v-.954l1.136-.343v1.3h1.273v.869Zm6.127,4.339h-1.156V30.847c0-.932-.352-1.4-1.05-1.4a1.135,1.135,0,0,0-1.158,1.232v3.139h-1.156v-7.6h1.156v3.128h.023a1.756,1.756,0,0,1,1.566-.847c1.1,0,1.776.857,1.776,2.218Zm6.277-2.325h-3.473a1.494,1.494,0,0,0,1.641,1.542,3.912,3.912,0,0,0,1.4-.246l.18.8a4.348,4.348,0,0,1-1.747.321,2.417,2.417,0,0,1-2.593-2.624,2.543,2.543,0,0,1,2.463-2.8,2.187,2.187,0,0,1,2.166,2.475A2.229,2.229,0,0,1,260.381,31.49Zm-1.061-.825c0-.8-.405-1.371-1.145-1.371a1.373,1.373,0,0,0-1.266,1.371Z" transform="translate(-174.806 -26.219)" fill="#fff"/>
  </g>
</svg>
