<svg width="80" height="81" viewBox="0 0 80 81" fill="none" xmlns="http://www.w3.org/2000/svg">
<path d="M1.58631 36.1359C1.33106 37.3289 1.13719 38.4574 1 39.5C1 38.5711 1.16346 37.3699 1.58631 36.1359C4.432 22.8345 14.906 1.5 39.5 1.5C55.5 1.5 77.5 12 78.5 39.5C77.5 38.5 78 30 69 30C61.8 30 59.6667 37 59.5 40.5C59.5 37 57.6 30 50 30C42.4 30 41.1667 34 41.5 36V71C41.8333 74 40.8 80 34 80C27.2 80 26.5 72 27 68L30.5 69V73L33.5 74.5H37L37.5 71.5V34C36.8333 32.6667 34.5 30 30.5 30C25.5 30 21 32.5 21 39.5C20.6667 36.3333 18.1 30 10.5 30C5.12924 30 2.60503 33.1629 1.58631 36.1359Z" fill="#D3D9E7"/>
<path d="M54 52C54 44.5 58 45 60.5 45H68C70.4 45 71.3333 47 71.5 48V59.5C71.5 63.5 70.5 64 62 64C55.2 64 53.8333 62 54 61V52Z" fill="#D3D9E7"/>
<path d="M4 55.5C4 47 10.5 43 15.5 43C19.3333 43.6667 27 46.8 27 54C27 63 18.5 65.5 16 65.5C13.5 65.5 4 64 4 55.5Z" fill="#D3D9E7"/>
<path d="M64.2217 8.48293C63.7057 8.07676 62.958 8.16586 62.552 8.68205C62.146 9.19824 62.2351 9.94574 62.7511 10.3517C69.7716 15.8762 74.4726 23.5403 76.2343 32.0678C74.2748 30.0994 71.5641 28.8797 68.5738 28.8797C65.0604 28.8797 61.9334 30.5641 59.9563 33.1668C59.7066 29.514 59.1083 25.1458 57.672 20.6796C55.1856 12.9481 50.8262 6.92484 44.683 2.7127C49.4942 3.35969 54.1464 4.93728 58.3511 7.36969C58.9195 7.6985 59.6468 7.50429 59.9758 6.93578C60.3046 6.36743 60.1104 5.64007 59.5419 5.31111C53.5354 1.83648 46.6721 0 39.6942 0C29.0916 0 19.1237 4.1289 11.6262 11.6262C4.1289 19.1237 0 29.0916 0 39.6942C0 40.3508 0.532363 40.8832 1.18902 40.8832C1.84567 40.8832 2.37804 40.3508 2.37804 39.6942C2.37804 35.0424 6.16323 31.2579 10.8161 31.2579C15.468 31.2579 19.2526 35.0424 19.2526 39.6942C19.2526 40.3508 19.7849 40.8832 20.4416 40.8832C21.0983 40.8832 21.6306 40.3508 21.6306 39.6942C21.6306 35.0424 25.416 31.2579 30.0687 31.2579C32.5729 31.2579 34.8246 32.3559 36.3711 34.0942V71.1689C36.3711 72.5542 35.2449 73.6812 33.8588 73.6812C32.4745 73.6812 31.3482 72.5542 31.3482 71.1689V70.1172C31.3482 65.8201 24.7021 65.7384 24.7021 70.0609V71.3967C24.7021 76.4462 28.8102 80.5544 33.8597 80.5544C38.9093 80.5544 43.0172 76.4462 43.0172 71.3967V34.0947C44.5641 32.3559 46.8164 31.2579 49.3214 31.2579C53.9732 31.2579 57.7577 35.0424 57.7577 39.6942C57.7577 40.3508 58.2901 40.8832 58.9467 40.8832C59.6034 40.8832 60.1358 40.3508 60.1358 39.6942C60.1358 35.0424 63.9211 31.2579 68.574 31.2579C73.2257 31.2579 77.0103 35.0424 77.0103 39.6942C77.0103 40.3508 77.5427 40.8832 78.1993 40.8832C78.856 40.8832 79.3883 40.3508 79.3883 39.6942C79.3883 27.4438 73.8602 16.0679 64.2217 8.48293ZM38.7491 40.4136C38.9663 40.6985 39.3083 40.883 39.6942 40.883C40.0801 40.883 40.422 40.6983 40.6392 40.4136V65.0306H38.7491V40.4136ZM30.0687 28.8798C26.7868 28.8798 23.8419 30.3493 21.8565 32.6642C22.098 29.6159 22.5977 26.1104 23.6345 22.5379C23.8176 21.9073 23.4547 21.2476 22.8241 21.0646C22.1934 20.8815 21.5337 21.2444 21.3508 21.8751C20.1787 25.9135 19.6616 29.8421 19.4333 33.1682C17.4567 30.5647 14.3297 28.8798 10.8161 28.8798C7.82976 28.8798 5.12229 30.0959 3.16326 32.0593C6.36426 16.7243 19.0075 4.81394 34.712 2.70953C29.7527 6.11155 25.9441 10.7035 23.3566 16.4132C23.0857 17.0114 23.3507 17.7159 23.9489 17.987C24.1081 18.0591 24.2748 18.0932 24.4389 18.0932C24.8914 18.0932 25.3237 17.8335 25.5227 17.3947C28.3341 11.1902 32.6969 6.40786 38.5052 3.15296V32.931C36.5507 30.3685 33.2587 28.8798 30.0687 28.8798ZM40.6392 71.3969C40.6392 75.1352 37.5979 78.1765 33.8596 78.1765C30.1213 78.1765 27.0801 75.1352 27.0801 71.3969V70.0611C27.0801 68.8167 28.9702 68.8459 28.9702 70.1173V71.1691C28.9702 73.8656 31.1632 76.0594 33.8605 76.0594C36.5561 76.0594 38.7491 73.8656 38.7491 71.1691V67.4088H40.6392V71.3969ZM49.3213 28.8798C46.1328 28.8798 42.8371 30.3685 40.883 32.9307V3.15121C53.792 10.3752 56.8251 23.5245 57.5378 32.6712C55.553 30.3521 52.606 28.8798 49.3213 28.8798Z" fill="#2A3656"/>
<path d="M14.765 62.6306C15.4217 62.6306 15.9541 62.0982 15.9541 61.4415V60.4645C17.7019 60.1041 19.2533 58.6071 19.16 56.7326C19.0682 54.8913 17.5205 53.8683 15.9541 53.2754V50.9018C16.502 51.1142 16.8702 51.4032 16.8897 51.4189C17.3923 51.836 18.1382 51.7696 18.5591 51.2689C18.9816 50.7662 18.9166 50.0162 18.4139 49.5937C18.353 49.5425 17.3771 48.7376 15.9539 48.4231V47.4214C15.9539 46.7648 15.4215 46.2324 14.7649 46.2324C14.1082 46.2324 13.5759 46.7648 13.5759 47.4214V48.467C12.1343 48.856 11.0069 50.0527 10.9367 51.5763C10.8529 53.3919 12.0932 54.2749 13.5759 54.8897V57.9027C13.1343 57.718 12.741 57.449 12.4354 57.1116C11.9945 56.6251 11.2425 56.588 10.7558 57.029C10.2693 57.4701 10.2322 58.2218 10.6732 58.7085C11.4196 59.5323 12.4499 60.119 13.5759 60.392V61.4419C13.576 62.0982 14.1084 62.6306 14.765 62.6306V62.6306ZM16.7738 57.0233C16.6995 57.4404 16.3149 57.7981 15.9541 57.9742C15.9541 57.2671 15.9541 56.5602 15.9541 55.8532C16.3555 56.0713 16.8691 56.4902 16.7738 57.0233ZM13.5695 52.3024C13.1675 51.9849 13.2496 51.4119 13.576 51.0898C13.576 51.2605 13.4947 52.2696 13.5695 52.3024Z" fill="#2A3656"/>
<path d="M24.154 60.5193C23.6443 60.1054 22.8952 60.1829 22.4814 60.6925C20.5833 63.0291 17.7701 64.3692 14.7633 64.3692C9.28348 64.3692 4.8253 59.911 4.8253 54.4312C4.8253 48.9515 9.28348 44.4933 14.7633 44.4933C20.2431 44.4933 24.7012 48.9515 24.7012 54.4312C24.7012 54.9516 24.6608 55.4739 24.5809 55.9838C24.4793 56.6325 24.9229 57.2408 25.5716 57.3424C26.2202 57.4437 26.8286 57.0005 26.9303 56.3517C27.0292 55.7205 27.0793 55.0743 27.0793 54.4312C27.0793 47.6402 21.5543 42.1152 14.7633 42.1152C7.97224 42.1152 2.44727 47.6402 2.44727 54.4312C2.44727 61.2223 7.97224 66.7472 14.7633 66.7472C18.4895 66.7472 21.9754 65.0869 24.3271 62.1919C24.7412 61.6822 24.6635 60.9334 24.154 60.5193V60.5193Z" fill="#2A3656"/>
<path d="M67.3734 43.6113H57.6126C54.9992 43.6113 52.873 45.7374 52.873 48.3509V60.5116C52.873 63.125 54.9993 65.2511 57.6126 65.2511H67.3734C69.9868 65.2511 72.1129 63.1249 72.1129 60.5116V48.3509C72.1129 45.7374 69.9868 43.6113 67.3734 43.6113ZM69.7349 60.5114C69.7349 61.8136 68.6754 62.8729 67.3734 62.8729H57.6126C56.3104 62.8729 55.2511 61.8135 55.2511 60.5114V48.3508C55.2511 47.0485 56.3106 45.9892 57.6126 45.9892H67.3734C68.6756 45.9892 69.7349 47.0485 69.7349 48.3508V60.5114Z" fill="#2A3656"/>
<path d="M59.0777 52.0626H63.6709C64.3276 52.0626 64.86 51.5302 64.86 50.8736C64.86 50.2169 64.3276 49.6846 63.6709 49.6846H59.0777C58.421 49.6846 57.8887 50.2169 57.8887 50.8736C57.8887 51.5302 58.421 52.0626 59.0777 52.0626Z" fill="#2A3656"/>
<path d="M65.8113 54.5195H59.0777C58.421 54.5195 57.8887 55.0519 57.8887 55.7085C57.8887 56.3652 58.421 56.8976 59.0777 56.8976H65.8113C66.468 56.8976 67.0004 56.3652 67.0004 55.7085C67.0004 55.0519 66.468 54.5195 65.8113 54.5195Z" fill="#2A3656"/>
</svg>
