<svg width="53" height="26" viewBox="0 0 53 26" fill="none" xmlns="http://www.w3.org/2000/svg">
<path d="M52.1167 19.9265H43.6474C47.0586 18.363 49.9049 15.8193 51.8083 12.6326L52.8788 10.8296C53.0319 10.572 53.0388 10.2556 52.8978 9.9916C52.7572 9.72763 52.4876 9.55334 52.1848 9.53008L42.0191 8.76777L38.1485 4.21213L38.7739 2.98619C38.8982 2.74252 38.8982 2.4557 38.7739 2.21204L37.8906 0.479296C37.7409 0.185288 37.4347 0 37.1 0H25.8172C24.315 0 22.8834 0.625665 21.8785 1.72047L15.4238 8.75466L14.0001 9.10112C13.9668 9.03386 13.925 8.97167 13.8745 8.91583L12.7324 7.79734H14.1333C14.6212 7.79734 15.0167 7.40941 15.0167 6.93096C15.0167 6.45251 14.6212 6.06459 14.1333 6.06459H2.65C2.16219 6.06459 1.76667 6.45251 1.76667 6.93096C1.76667 7.40941 2.16219 7.79734 2.65 7.79734H4.41667V10.127L0.815189 10.3964C0.354113 10.4316 -0.00129043 10.8093 3.52194e-06 11.2628V20.7929C3.52194e-06 21.2713 0.395519 21.6593 0.883337 21.6593H11.6063C11.1853 23.2122 11.9142 24.8443 13.3634 25.5939C14.8127 26.3435 16.5979 26.0114 17.6667 24.7939C18.6285 25.8883 20.1843 26.2792 21.564 25.7728C22.9442 25.2669 23.8565 23.9707 23.85 22.5256C23.8474 22.2329 23.8073 21.9418 23.731 21.6593H48.5833V22.7663C47.8911 23.1585 47.5534 23.958 47.7604 24.7157C47.967 25.4729 48.667 26 49.4667 26C50.2663 26 50.9664 25.4729 51.1729 24.7157C51.38 23.958 51.0427 23.1585 50.35 22.7663V21.6593H52.1167C52.6045 21.6593 53 21.2713 53 20.7929C53 20.3144 52.6045 19.9265 52.1167 19.9265ZM1.76667 14.7283H44.6463C42.4035 15.8603 39.9186 16.4543 37.3959 16.461H1.76667V14.7283ZM25.737 8.66371L28.6812 5.19822H31.8V8.66371H25.737ZM33.5667 5.19822H36.6855L39.6297 8.66371H33.5667V5.19822ZM23.191 2.88001C23.8612 2.14985 24.8157 1.73274 25.8172 1.73274H36.554L36.9956 2.59911L36.554 3.46548H28.2667C28.0044 3.46506 27.7556 3.57928 27.5873 3.77641L23.4355 8.66371H17.8832L23.191 2.88001ZM6.18334 7.79734H10.2342L12.0246 9.55334L6.18334 9.99457V7.79734ZM12.4348 11.2628C12.484 11.259 12.5327 11.251 12.5806 11.2396L16.0087 10.3964H40.5652L49.8199 11.0894L47.3899 12.9956H1.76667V12.0649L12.4348 11.2628ZM1.76667 18.1938H37.3959C41.2613 18.1849 45.0181 16.9378 48.0938 14.6416C44.9167 18.0017 40.4591 19.9159 35.7866 19.9265H1.76667V18.1938ZM15.0167 24.2584C14.041 24.2584 13.25 23.4825 13.25 22.5256C13.2573 22.2189 13.3488 21.9194 13.5148 21.6593H16.5362C16.6958 21.9211 16.7812 22.2202 16.7833 22.5256C16.7833 23.4825 15.9923 24.2584 15.0167 24.2584ZM22.0833 22.5256C22.0833 23.4825 21.2923 24.2584 20.3167 24.2584C19.341 24.2584 18.55 23.4825 18.55 22.5256C18.5556 22.2194 18.6449 21.9199 18.8088 21.6593H21.8314C21.9928 21.9207 22.0799 22.2198 22.0833 22.5256Z" fill="white"/>
</svg>
