<svg width="31" height="43" viewBox="0 0 31 43" fill="none" xmlns="http://www.w3.org/2000/svg">
<path d="M24.3178 0.9H6.68241C3.30135 0.9 0.555273 3.72742 0.555273 7.19679V19.348C0.555273 19.7364 0.862206 20.0557 1.24629 20.0557C1.63037 20.0557 1.93731 19.7364 1.93731 19.348V7.19679C1.93731 4.5026 4.06866 2.3153 6.68241 2.3153H24.3178C26.9315 2.3153 29.0629 4.5026 29.0629 7.19679V32.9096C29.0629 33.298 29.3698 33.6172 29.7539 33.6172C30.1383 33.6172 30.4449 33.298 30.4449 32.9096V7.19679C30.4449 3.72742 27.6989 0.9 24.3178 0.9Z" fill="white" stroke="white" stroke-width="0.2"/>
<path d="M29.7539 30.9897C29.3743 30.9897 29.0629 31.2921 29.0629 31.6689V36.0932C29.0629 38.6542 26.9361 40.7414 24.3178 40.7414H6.68241C4.06415 40.7414 1.93731 38.6542 1.93731 36.0932V15.7169C1.93731 15.34 1.62589 15.0377 1.24629 15.0377C0.866685 15.0377 0.555273 15.34 0.555273 15.7169V36.0932C0.555273 39.4071 3.30586 42.0998 6.68241 42.0998H24.3178C27.6943 42.0998 30.4449 39.4071 30.4449 36.0932V31.6689C30.4449 31.2921 30.1335 30.9897 29.7539 30.9897Z" fill="white" stroke="white" stroke-width="0.2"/>
<path d="M6.76655 5.19395H6.76652C5.51779 5.19427 4.50156 6.21013 4.50156 7.45893V24.1865C4.50156 25.4356 5.51778 26.4515 6.76655 26.4515H24.4403C25.6893 26.4515 26.7052 25.4356 26.7052 24.1865V7.45893C26.7052 6.21016 25.6893 5.19395 24.4403 5.19395H6.76655ZM25.3206 7.45893V7.96141H23.8908C23.5086 7.96141 23.1985 8.27148 23.1985 8.65371C23.1985 9.03628 23.5086 9.34601 23.8908 9.34601H25.3206V10.3513H23.8908C23.5086 10.3513 23.1985 10.661 23.1985 11.0436C23.1985 11.4258 23.5086 11.7359 23.8908 11.7359H25.3206V12.7408H23.8908C23.5086 12.7408 23.1985 13.0509 23.1985 13.4331C23.1985 13.8154 23.5086 14.1255 23.8908 14.1255H25.3206V15.1304H23.8908C23.5086 15.1304 23.1985 15.4405 23.1985 15.8227C23.1985 16.2049 23.5086 16.515 23.8908 16.515H25.3206V17.52H23.8908C23.5086 17.52 23.1985 17.8301 23.1985 18.2123C23.1985 18.5948 23.5086 18.9046 23.8908 18.9046H25.3206V19.9099H23.8908C23.5086 19.9099 23.1985 20.2196 23.1985 20.6022C23.1985 20.9844 23.5086 21.2945 23.8908 21.2945H25.3206V22.2994H23.8908C23.5086 22.2994 23.1985 22.6091 23.1985 22.9917C23.1985 23.3739 23.5086 23.684 23.8908 23.684H25.3206V24.1865C25.3206 24.6717 24.9255 25.0669 24.4403 25.0669H6.76655C6.2813 25.0669 5.88616 24.6717 5.88616 24.1865V7.45893C5.88616 6.97368 6.2813 6.57855 6.76655 6.57855H24.4402C24.9255 6.57882 25.3206 6.97373 25.3206 7.45893Z" fill="white" stroke="white" stroke-width="0.2"/>
<path d="M10.2972 10.8215C10.0267 11.0917 10.0268 11.5302 10.2972 11.8006L10.2972 11.8007C10.4302 11.9332 10.6088 12.0001 10.7866 12.0004H10.7868C10.963 12.0004 11.1411 11.9352 11.276 11.8007L11.2761 11.8006L11.8064 11.2703C12.0768 10.9999 12.0769 10.5614 11.8064 10.2913M10.2972 10.8215L10.3679 10.8923M10.2972 10.8215L10.2972 10.8216L10.3679 10.8923M10.2972 10.8215L10.8274 10.2913C11.0979 10.0209 11.536 10.0209 11.8064 10.2913M10.3679 10.8923C10.1365 11.1234 10.1365 11.4985 10.3679 11.7298C10.4808 11.8424 10.6335 11.9001 10.7868 11.9004C10.9386 11.9004 11.0907 11.8443 11.2054 11.7298L10.3679 10.8923ZM11.8064 10.2913L11.7357 10.362L11.8064 10.2912C11.8064 10.2913 11.8064 10.2913 11.8064 10.2913Z" fill="white" stroke="white" stroke-width="0.2"/>
<path d="M13.8297 13.8628L13.8297 13.8628C13.4487 13.9659 13.1479 14.2663 13.0451 14.6478C12.8115 15.5109 13.0589 16.439 13.6904 17.0708L13.6904 17.0709C14.3167 17.6968 15.2597 17.9473 16.1135 17.7161C16.4949 17.6131 16.7954 17.3126 16.8984 16.9315L16.8984 16.9315C17.1317 16.0684 16.8847 15.14 16.2529 14.5084C15.6213 13.8769 14.6928 13.6295 13.8297 13.8628ZM14.6697 16.0916L14.6696 16.0915C14.4262 15.8483 14.3107 15.506 14.3506 15.1685C14.688 15.1285 15.0306 15.2441 15.2739 15.4874C15.5171 15.7306 15.6328 16.073 15.5927 16.4104C15.255 16.4505 14.9127 16.3348 14.6697 16.0916Z" fill="white" stroke="white" stroke-width="0.2"/>
<path d="M15.6032 38.1112C12.6738 38.1112 10.2906 35.7281 10.2906 32.7987C10.2906 29.8693 12.6737 27.4861 15.6032 27.4864V38.1112ZM15.6032 38.1112C18.5323 38.1112 20.9154 35.7281 20.9154 32.7987M15.6032 38.1112L20.9154 32.7987M20.9154 32.7987C20.9154 29.8692 18.5323 27.4864 15.6032 27.4864L20.9154 32.7987ZM15.6032 28.871H15.6032C17.7688 28.8707 19.5308 30.6331 19.5308 32.7987C19.5308 34.9646 17.7688 36.7266 15.6032 36.7266C13.4373 36.7266 11.6752 34.9646 11.6752 32.7987C11.6752 30.6331 13.4373 28.871 15.6032 28.871Z" fill="white" stroke="white" stroke-width="0.2"/>
<path d="M4.93439 34.0511L4.93438 34.0511C4.74772 33.6627 4.64902 33.2296 4.64902 32.7982C4.64902 32.3667 4.74771 31.9336 4.93439 31.5455C6.23677 28.8375 8.75981 28.3857 9.50121 28.3116L4.93439 34.0511ZM4.93439 34.0511C6.23653 36.7584 8.75859 37.2105 9.50051 37.2847M4.93439 34.0511L10.3291 36.8716M10.3291 36.8716L10.329 36.8718C10.1679 37.1335 9.89004 37.2892 9.58862 37.2892C9.55985 37.2892 9.53046 37.2878 9.50051 37.2847M10.3291 36.8716C10.5049 36.5846 10.5033 36.2306 10.3229 35.9486M10.3291 36.8716L10.3229 35.9486M9.50051 37.2847C9.50045 37.2847 9.5004 37.2847 9.50035 37.2847L9.51088 37.1852L9.50094 37.2847C9.5008 37.2847 9.50065 37.2847 9.50051 37.2847ZM10.3229 35.9486C9.6487 34.894 9.3502 33.924 9.3502 32.7982C9.3502 31.6723 9.6487 30.7024 10.3229 29.6478C10.5038 29.3653 10.506 29.0106 10.33 28.7241L10.3229 35.9486ZM5.02451 34.0078L5.02376 34.0081L5.02451 34.0078ZM6.18204 32.1455C6.80744 30.8455 7.79715 30.2307 8.58409 29.9394C8.1607 30.8587 7.9656 31.7753 7.9656 32.7982C7.9656 33.821 8.16042 34.7376 8.58402 35.6569C7.79704 35.3656 6.80714 34.7508 6.18204 33.4509C6.08517 33.249 6.03363 33.0232 6.03363 32.7982C6.03363 32.5732 6.08517 32.3473 6.18204 32.1455ZM10.33 28.7241C10.1537 28.4368 9.83517 28.2782 9.50125 28.3116L10.33 28.7241Z" fill="white" stroke="white" stroke-width="0.2"/>
<path d="M21.7042 37.2855L21.7046 37.2854L26.1814 31.5893L26.2715 31.546C26.2715 31.546 26.2715 31.546 26.2715 31.546C24.9691 28.8379 22.4463 28.3861 21.7049 28.3121L21.7048 28.312C21.3704 28.2789 21.0525 28.4372 20.8759 28.7248L20.8759 28.7248C20.6999 29.0115 20.7025 29.3658 20.883 29.6482L20.883 29.6482C21.5575 30.7028 21.8557 31.6727 21.8557 32.7986C21.8557 33.9248 21.5575 34.8944 20.883 35.9493C20.7026 36.231 20.7009 36.5854 20.8768 36.872L20.962 36.8198L20.8768 36.8721C21.038 37.1343 21.3162 37.2896 21.6173 37.2896C21.6461 37.2896 21.6751 37.2883 21.7042 37.2855ZM22.6219 35.6574C23.0455 34.738 23.2403 33.8215 23.2403 32.7986C23.2403 31.7754 23.0455 30.8592 22.6219 29.9398C23.4088 30.2312 24.3985 30.846 25.0239 32.146C25.121 32.348 25.1723 32.5738 25.1723 32.7986C25.1723 33.0237 25.121 33.2495 25.0239 33.4512L25.0239 33.4512C24.3988 34.7512 23.4089 35.366 22.6219 35.6574ZM20.9654 29.5955L20.9673 29.5943L20.9654 29.5955Z" fill="white" stroke="white" stroke-width="0.2"/>
<path d="M22.2786 18.8103L22.2786 18.8103C21.8483 19.819 20.9425 20.5222 19.8873 20.7049C19.7044 21.7606 19.0012 22.6659 17.993 23.0958L22.2786 18.8103ZM22.2786 18.8103C22.3525 18.6368 22.3525 18.4407 22.2786 18.2673L22.2786 18.2672C21.7754 17.0878 20.6222 16.3256 19.3401 16.3256C19.2703 16.3256 19.2006 16.3279 19.1313 16.3325C19.0926 14.2773 18.2226 12.2144 16.6388 10.6306C14.7743 8.76611 12.0547 7.7773 9.42807 8.26303C8.42729 8.44794 7.63131 9.24427 7.44608 10.2447L7.44607 10.2447C7.0966 12.1367 7.52714 14.1066 8.49601 15.7511C9.93547 18.1946 12.634 19.8947 15.5152 19.9495C15.5107 20.0185 15.5083 20.0879 15.5083 20.1574C15.5083 21.4395 16.2705 22.5927 17.45 23.0958L22.2786 18.8103ZM17.892 19.6061L17.8919 19.6061C17.5725 19.7079 17.2481 19.7861 16.9206 19.8424C16.9023 19.946 16.8929 20.0512 16.8929 20.1577C16.8929 20.78 17.2101 21.3488 17.7215 21.6784C18.2329 21.3488 18.5501 20.78 18.5501 20.1577C18.5497 19.9462 18.6318 19.7474 18.7808 19.5984C18.9298 19.4494 19.1283 19.3673 19.3392 19.3673C19.9628 19.3673 20.5316 19.0501 20.8609 18.5388C20.5316 18.0274 19.9628 17.7102 19.3402 17.7105H19.3401C19.2339 17.7105 19.129 17.7196 19.026 17.7378C18.9888 17.9543 18.9413 18.1691 18.8842 18.3818M17.892 19.6061L18.7876 18.3558M17.892 19.6061C18.0119 19.5677 18.1387 19.5246 18.2599 19.4784M17.892 19.6061L18.2243 19.385M18.8842 18.3818L18.7876 18.3558M18.8842 18.3818C18.8842 18.3817 18.8842 18.3817 18.8843 18.3816L18.7876 18.3558M18.8842 18.3818C18.8214 18.6166 18.7476 18.8497 18.6608 19.0775M18.7876 18.3558C18.7256 18.5878 18.6528 18.8176 18.5674 19.0419C18.5075 19.2002 18.3826 19.3248 18.2243 19.385M18.6608 19.0775L18.5676 19.042L18.6609 19.0773C18.6609 19.0774 18.6609 19.0774 18.6608 19.0775ZM18.6608 19.0775C18.5908 19.2626 18.4447 19.4082 18.2599 19.4784M18.2599 19.4784L18.2243 19.385M18.2599 19.4784C18.2599 19.4784 18.2599 19.4784 18.2599 19.4784L18.2243 19.385M8.80791 10.4967L8.80791 10.4967C8.55846 11.8448 8.77311 13.2694 9.41397 14.5619C10.6028 14.1151 11.6727 13.3528 12.4857 12.3837L12.4857 12.3837C13.0225 11.7438 13.4513 11.0125 13.7445 10.2306C12.8028 9.76393 11.7915 9.5235 10.791 9.5235L8.80791 10.4967ZM8.80791 10.4967C8.88923 10.0568 9.23991 9.70587 9.67975 9.62456L8.80791 10.4967ZM18.9388 17.6531C19.0699 17.6247 19.2041 17.6105 19.3401 17.6105C20.0188 17.6102 20.637 17.9674 20.9785 18.5388C20.637 19.1101 20.0188 19.4673 19.3392 19.4673C19.1547 19.4673 18.9817 19.5389 18.8515 19.6691C18.7213 19.7993 18.6497 19.9726 18.6501 20.1577L18.9388 17.6531ZM10.0986 15.7804C10.0987 15.7803 10.0987 15.7803 10.0988 15.7803L10.0611 15.6877L10.0986 15.7804L10.0986 15.7804ZM10.1587 15.7558C11.3779 15.252 12.4874 14.4679 13.365 13.4831L13.365 13.4831C14.0251 12.7424 14.5601 11.8935 14.9388 10.9761C15.191 11.1701 15.4319 11.3819 15.6598 11.6096C17.1751 13.1251 17.9091 15.1497 17.7201 17.0726C17.7189 17.0797 17.7169 17.0918 17.7141 17.1083C17.6853 17.2811 17.5765 17.9328 17.4702 18.2874C17.1155 18.3938 16.4637 18.5025 16.2908 18.5314C16.2743 18.5341 16.2621 18.5362 16.255 18.5374C14.3321 18.7264 12.3079 17.9923 10.7923 16.4771C10.5643 16.2488 10.3525 16.0079 10.1587 15.7558Z" fill="white" stroke="white" stroke-width="0.2"/>
</svg>
