<svg xmlns="http://www.w3.org/2000/svg" width="17.984" height="16" viewBox="0 0 17.984 16">
  <path id="_" data-name="" d="M17.219,2H4.5L4.219.625A.764.764,0,0,0,3.5,0H.375A.38.38,0,0,0,0,.375v.75A.361.361,0,0,0,.375,1.5h2.5L5.031,12.625A2,2,0,1,0,8.5,14a2.417,2.417,0,0,0-.281-1H12.75a2.364,2.364,0,0,0-.25,1,2,2,0,0,0,4,0,2.035,2.035,0,0,0-.625-1.437l.031-.125a.777.777,0,0,0-.75-.937H6.344L6.063,10h9.75a.743.743,0,0,0,.75-.562l1.406-6.5A.777.777,0,0,0,17.219,2ZM6.5,14.75A.722.722,0,0,1,5.75,14a.74.74,0,0,1,.75-.75.76.76,0,0,1,.75.75A.74.74,0,0,1,6.5,14.75Zm8,0a.722.722,0,0,1-.75-.75.74.74,0,0,1,.75-.75.761.761,0,0,1,.75.75A.74.74,0,0,1,14.5,14.75Zm.719-6.25H5.75l-.969-5H16.313Z" fill="#98a1b9"/>
</svg>
