<svg width="17" height="30" viewBox="0 0 17 30" fill="none" xmlns="http://www.w3.org/2000/svg">
<path d="M0.696 23.28L2.904 20.176C3.62933 20.8587 4.504 21.4347 5.528 21.904C6.57333 22.352 7.58667 22.576 8.568 22.576C9.50667 22.576 10.296 22.3413 10.936 21.872C11.576 21.3813 11.896 20.6987 11.896 19.824C11.896 19.12 11.5227 18.5013 10.776 17.968C10.0293 17.4133 9.12267 16.9227 8.056 16.496C7.01067 16.048 5.95467 15.5573 4.888 15.024C3.84267 14.4907 2.94667 13.7547 2.2 12.816C1.45333 11.8773 1.08 10.768 1.08 9.488C1.08 7.84533 1.63467 6.43733 2.744 5.264C3.85333 4.09067 5.304 3.35467 7.096 3.056V0.0479984H9.816V2.992C12.0347 3.16267 13.912 3.94133 15.448 5.328L13.656 8.688C12.9947 8.112 12.2053 7.64267 11.288 7.28C10.392 6.896 9.51733 6.704 8.664 6.704C7.68267 6.704 6.86133 6.96 6.2 7.472C5.53867 7.984 5.208 8.63467 5.208 9.424C5.208 10 5.47467 10.5333 6.008 11.024C6.54133 11.4933 7.20267 11.888 7.992 12.208C8.80267 12.5067 9.67733 12.88 10.616 13.328C11.5547 13.776 12.4187 14.2453 13.208 14.736C14.0187 15.2053 14.6907 15.8773 15.224 16.752C15.7573 17.6053 16.024 18.5973 16.024 19.728C16.024 21.4133 15.4693 22.864 14.36 24.08C13.2507 25.296 11.736 26.032 9.816 26.288V29.232H7.096V26.288C4.45067 25.9893 2.31733 24.9867 0.696 23.28Z" fill="#F5F5F5"/>
</svg>
