<svg xmlns="http://www.w3.org/2000/svg" width="7.856" height="14" viewBox="0 0 7.856 14">
  <path id="_Verified_for_payments" data-name=" Verified for payments" d="M6.77,7.395,3.6,6.465a1.147,1.147,0,0,1-.848-.9A1.132,1.132,0,0,1,3.871,4.25h2a2.019,2.019,0,0,1,1.23.41.453.453,0,0,0,.547-.055l.629-.629a.447.447,0,0,0-.027-.656A3.917,3.917,0,0,0,5.867,2.5H5.813V1.188A.47.47,0,0,0,5.375.75H4.5a.45.45,0,0,0-.437.438V2.5H3.98a2.94,2.94,0,0,0-2.9,2.188,2.864,2.864,0,0,0,2,3.445l3.172.93A1.108,1.108,0,0,1,6,11.25H3.98a2.183,2.183,0,0,1-1.23-.383.453.453,0,0,0-.547.055l-.629.629a.447.447,0,0,0,.027.656A3.891,3.891,0,0,0,3.98,13h.082v1.313a.432.432,0,0,0,.438.438h.875a.45.45,0,0,0,.438-.437V13h.055a2.917,2.917,0,0,0,2.9-2.16A2.864,2.864,0,0,0,6.77,7.395Z" transform="translate(-0.996 -0.75)" fill="#fff"/>
</svg>
