<svg xmlns="http://www.w3.org/2000/svg" width="10.504" height="12" viewBox="0 0 10.504 12">
  <path id="_Follow" data-name=" Follow" d="M10.789,8.613A4.405,4.405,0,0,1,9.477,4.98a3.713,3.713,0,0,0-3-3.633V.855A.738.738,0,1,0,5,.855v.492A3.713,3.713,0,0,0,2,4.98,4.405,4.405,0,0,1,.688,8.613.6.6,0,0,0,.5,9.105a.726.726,0,0,0,.75.75h8.977A.76.76,0,0,0,11,9.105.715.715,0,0,0,10.789,8.613ZM2.071,8.73A5.941,5.941,0,0,0,3.125,5V4.98a2.625,2.625,0,1,1,5.25,0A.023.023,0,0,1,8.352,5,5.941,5.941,0,0,0,9.406,8.73Zm3.68,3.375a1.476,1.476,0,0,0,1.477-1.5H4.25A1.481,1.481,0,0,0,5.75,12.106Z" transform="translate(-0.496 -0.105)" fill="#717c99"/>
</svg>
