<svg width="22" height="19" viewBox="0 0 22 19" fill="none" xmlns="http://www.w3.org/2000/svg">
<path d="M21.2148 9.17969C20.1953 4.92578 16.2578 2.28906 11.9688 1.97266V1.09375C11.9688 0.636719 11.582 0.25 11.125 0.25C10.6328 0.25 10.2812 0.636719 10.2812 1.09375V1.97266C5.99219 2.28906 2.05469 4.89062 1 9.17969C0.789062 10.0234 1.80859 10.7266 2.54688 10.0938V10.0586C4.30469 8.44141 5.71094 9.07422 6.97656 11.043C7.36328 11.6758 8.20703 11.6406 8.55859 11.043C9.05078 10.3047 9.54297 9.63672 10.2812 9.32031V15.7188C10.2812 16.2109 9.89453 16.5625 9.4375 16.5625C9.05078 16.5625 8.73438 16.3516 8.62891 16C8.45312 15.5781 7.99609 15.332 7.53906 15.5078C7.11719 15.6484 6.87109 16.1406 7.04688 16.5625C7.39844 17.582 8.34766 18.25 9.4375 18.25C10.8086 18.25 11.9688 17.125 11.9688 15.7188V9.32031C12.8477 9.70703 13.3047 10.4805 13.6562 11.043C14.043 11.6406 14.8516 11.6758 15.2383 11.043C16.5391 9.07422 17.9453 8.47656 19.668 10.0586V10.0938C20.4062 10.7266 21.4258 10.0234 21.2148 9.17969ZM14.4648 9.25C13.6211 8.19531 12.4961 7.45703 11.125 7.45703C9.71875 7.45703 8.66406 8.125 7.78516 9.21484C6.51953 7.66797 4.86719 7.21094 3.46094 7.59766C5.04297 4.99609 8.10156 3.625 11.125 3.625C14.1133 3.625 17.207 4.99609 18.7539 7.59766C17.0664 7.10547 15.625 7.87891 14.4648 9.25Z" fill="#717C99"/>
</svg>
