<svg width="85" height="85" viewBox="0 0 85 85" fill="none" xmlns="http://www.w3.org/2000/svg">
<path d="M80.7752 0.25H46.9751C44.6417 0.25 42.7501 2.14163 42.7501 4.47501V10.1083H10.3583C6.47128 10.1131 3.32134 13.263 3.31674 17.15V67.8502C1.76102 67.8502 0.5 69.1112 0.5 70.6667V74.8917C0.506275 80.3338 4.91639 84.7439 10.3583 84.7502H75.1417C80.5838 84.7439 84.9939 80.3338 85 74.8919V70.6669C85 69.1114 83.739 67.8502 82.1833 67.8502V30.9742C83.8653 30.3796 84.9925 28.7925 85 27.0083V4.47501C85.0002 2.14163 83.1086 0.25 80.7752 0.25ZM82.1835 74.8917C82.1789 78.7787 79.0289 81.9287 75.1417 81.9335H10.3583C6.47128 81.9289 3.32134 78.7789 3.31653 74.8917V70.6667H27.2583V72.075C27.2583 75.1862 29.7804 77.7083 32.8916 77.7083H52.6084C55.7196 77.7083 58.2417 75.1862 58.2417 72.075V70.6667H82.1835V74.8917ZM17.5929 32.067C13.8933 30.8912 12.9102 26.4746 12.6904 23.3537C15.8353 25.1719 20.5772 24.9747 25.2021 24.786C29.1019 24.6254 33.1311 24.4593 35.2421 25.6691C39.9783 28.3815 37.0095 36.1795 36.9786 36.2569C36.8085 36.6903 36.864 37.1799 37.1262 37.5646C37.3885 37.9492 37.8242 38.1793 38.2898 38.1793C39.025 38.1201 39.7311 38.4786 40.117 39.1073C40.5027 39.7361 40.5027 40.5279 40.117 41.1567C39.7313 41.7852 39.025 42.1439 38.2898 42.0847C38.1672 42.0845 38.0451 42.0718 37.925 42.0466C37.2304 41.8996 36.5349 42.2926 36.3026 42.9634C34.8738 47.1282 30.9571 49.9252 26.5541 49.9252C22.1511 49.9252 18.2344 47.1282 16.8056 42.9634C16.609 42.3972 16.0756 42.0174 15.4762 42.0169C15.3779 42.0172 15.2796 42.027 15.1832 42.0464C15.0631 42.0713 14.941 42.0841 14.8184 42.0845C14.0832 42.1437 13.3771 41.7852 12.9912 41.1565C12.6055 40.5277 12.6055 39.7359 12.9912 39.1071C13.3769 38.4786 14.0832 38.1199 14.8184 38.1791C15.5963 38.1791 16.2267 37.5485 16.2267 36.7708V34.5724C16.3929 34.6357 16.5632 34.6964 16.7378 34.7527C17.4795 34.9888 18.272 34.5788 18.5082 33.8372C18.7445 33.0957 18.3346 32.3032 17.5929 32.067ZM26.5543 52.7428C27.2512 52.7397 27.9469 52.6809 28.6344 52.5667C28.3326 54.8551 29.2027 57.1419 30.9498 58.6507C30.5273 60.743 28.6888 62.2472 26.5543 62.2472C24.4198 62.2472 22.5813 60.7427 22.1588 58.6507C23.9057 57.1419 24.776 54.8551 24.4742 52.5667C25.1617 52.6809 25.8572 52.7399 26.5543 52.7428ZM26.5543 65.0658C29.9523 65.107 32.9198 62.7749 33.6833 59.4635H35.9437C39.5975 59.3679 42.6405 62.2449 42.7501 65.8983V67.8502H38.5251V65.8983C38.5251 65.1204 37.8945 64.49 37.1168 64.49C36.339 64.49 35.7086 65.1207 35.7086 65.8983V67.8502H17.4V65.8983C17.4 65.1204 16.7694 64.49 15.9918 64.49C15.2139 64.49 14.5835 65.1207 14.5835 65.8983V67.8502H10.3585V65.8983C10.4681 62.2449 13.5114 59.3681 17.1649 59.4635H19.4253C20.1885 62.7749 23.1561 65.107 26.5543 65.0658ZM30.0751 70.6667H55.4251V72.075C55.4251 73.6305 54.1641 74.8917 52.6084 74.8917H32.8916C31.3361 74.8917 30.0749 73.6307 30.0749 72.075V70.6667H30.0751ZM56.8334 67.8502H45.5666V65.8983C45.4564 60.6896 41.1525 56.5518 35.9434 56.647H32.9267C31.4679 55.4389 30.9625 53.4234 31.6789 51.6698C34.7514 50.3666 37.2141 47.9447 38.5684 44.8943C41.135 44.7902 43.1739 42.7011 43.2159 40.1328C43.1948 38.1546 41.9593 36.3929 40.1063 35.6993C40.9162 32.6954 41.9062 26.2436 36.6404 23.2272C33.8236 21.6133 29.5775 21.7879 25.0835 21.9737C19.7196 22.1947 14.1706 22.4229 12.5413 19.3146C12.2529 18.7652 11.6388 18.469 11.0293 18.5859C10.4198 18.7026 9.95859 19.2046 9.89354 19.8216C9.84982 20.2441 9.04854 28.521 13.4143 32.7684V35.5611C11.1303 36.1714 9.64338 38.3694 9.92658 40.7166C10.21 43.0638 12.1771 44.8448 14.5408 44.8941C15.8949 47.9449 18.3578 50.3674 21.4303 51.6711C22.1469 53.4245 21.6416 55.4401 20.1825 56.6482H17.1643C11.9558 56.5531 7.65198 60.69 7.54113 65.8981V67.85H6.13286V17.15C6.13286 14.8167 8.02449 12.925 10.3579 12.925H42.7501V27.0083C42.7501 29.3417 44.6417 31.2333 46.9751 31.2333H48.0341L47.0778 35.5232C46.6946 37.1994 47.3811 38.939 48.8059 39.9017C50.2033 40.8956 52.0683 40.927 53.4984 39.9806L67.1044 31.2333H79.3667V67.8502H56.8334ZM82.1835 27.0083C82.1835 27.7862 81.5528 28.4166 80.7752 28.4166H66.6919C66.4217 28.4166 66.1573 28.4944 65.9299 28.6406L51.9705 37.6131C51.4915 37.9235 50.8726 37.9143 50.4032 37.5897C49.9339 37.2651 49.7067 36.6893 49.8283 36.1316L51.1662 30.1321C51.2595 29.7148 51.1581 29.2779 50.8908 28.9445C50.6235 28.6109 50.2192 28.4168 49.7917 28.4168H46.9751C46.1973 28.4168 45.5668 27.7862 45.5668 27.0085V4.47501C45.5668 3.69715 46.1975 3.06674 46.9751 3.06674H80.7752C81.5531 3.06674 82.1835 3.69736 82.1835 4.47501V27.0083Z" fill="#2A3656"/>
<path d="M21.6255 73.4839H17.4005C16.6226 73.4839 15.9922 74.1145 15.9922 74.8922C15.9922 75.6698 16.6228 76.3004 17.4005 76.3004H21.6255C22.4033 76.3004 23.0337 75.6698 23.0337 74.8922C23.0337 74.1145 22.4033 73.4839 21.6255 73.4839Z" fill="#2A3656"/>
<path d="M8.95124 76.3004C9.729 76.3004 10.3595 75.6699 10.3595 74.8922C10.3595 74.1144 9.729 73.4839 8.95124 73.4839C8.17347 73.4839 7.54297 74.1144 7.54297 74.8922C7.54297 75.6699 8.17347 76.3004 8.95124 76.3004Z" fill="#2A3656"/>
<path d="M13.1739 76.3004C13.9517 76.3004 14.5822 75.6699 14.5822 74.8922C14.5822 74.1144 13.9517 73.4839 13.1739 73.4839C12.3961 73.4839 11.7656 74.1144 11.7656 74.8922C11.7656 75.6699 12.3961 76.3004 13.1739 76.3004Z" fill="#2A3656"/>
<path d="M52.6078 11.5161C50.2744 11.5161 48.3828 13.4077 48.3828 15.7411C48.3828 18.0745 50.2744 19.9661 52.6078 19.9661C54.9412 19.9661 56.8328 18.0745 56.8328 15.7411C56.8328 13.4077 54.9412 11.5161 52.6078 11.5161ZM52.6078 17.1494C51.83 17.1494 51.1996 16.5188 51.1996 15.7411C51.1996 14.9633 51.8302 14.3329 52.6078 14.3329C53.3857 14.3329 54.0161 14.9635 54.0161 15.7411C54.0163 16.5188 53.3857 17.1494 52.6078 17.1494Z" fill="#2A3656"/>
<path d="M63.8735 11.5161C61.5401 11.5161 59.6484 13.4077 59.6484 15.7411C59.6484 18.0745 61.5401 19.9661 63.8735 19.9661C66.2068 19.9661 68.0985 18.0745 68.0985 15.7411C68.0985 13.4077 66.2068 11.5161 63.8735 11.5161ZM63.8735 17.1494C63.0956 17.1494 62.4652 16.5188 62.4652 15.7411C62.4652 14.9633 63.0958 14.3329 63.8735 14.3329C64.6511 14.3329 65.2817 14.9635 65.2817 15.7411C65.2817 16.5188 64.6513 17.1494 63.8735 17.1494Z" fill="#2A3656"/>
<path d="M75.1391 11.5161C72.8057 11.5161 70.9141 13.4077 70.9141 15.7411C70.9141 18.0745 72.8057 19.9661 75.1391 19.9661C77.4725 19.9661 79.3641 18.0745 79.3641 15.7411C79.3641 13.4077 77.4727 11.5161 75.1391 11.5161ZM75.1391 17.1494C74.3612 17.1494 73.7308 16.5188 73.7308 15.7411C73.7308 14.9633 74.3614 14.3329 75.1391 14.3329C75.9167 14.3329 76.5473 14.9635 76.5473 15.7411C76.5476 16.5188 75.9169 17.1494 75.1391 17.1494Z" fill="#2A3656"/>
</svg>
