<svg xmlns="http://www.w3.org/2000/svg" width="24.655" height="17.633" viewBox="0 0 24.655 17.633">
  <path id="right-arrow" d="M7.726,4.924A.839.839,0,1,1,8.918,6.1L2.873,12.149H22.821a.831.831,0,0,1,.835.835.84.84,0,0,1-.835.847H2.873l6.045,6.034a.856.856,0,0,1,0,1.192.835.835,0,0,1-1.192,0L.25,13.581a.821.821,0,0,1,0-1.18Z" transform="translate(0.5 -4.174)" fill="#378BCB" stroke="#378BCB" stroke-width="2"/>
</svg>
