<svg width="230" height="31" viewBox="0 0 230 31" fill="none" xmlns="http://www.w3.org/2000/svg">
<rect x="1.00415" y="14.1094" width="227.749" height="2.97231" fill="#378BCB" stroke="white"/>
<path d="M132.394 15.8027C132.394 24.087 125.678 30.8027 117.394 30.8027C109.109 30.8027 102.394 24.087 102.394 15.8027C102.394 7.51846 109.109 0.802734 117.394 0.802734C125.678 0.802734 132.394 7.51846 132.394 15.8027Z" fill="#378BCB"/>
<path d="M124.663 16.0312C123.952 12.5781 121.159 10.4961 118.188 10.166V9.70898C118.188 9.27734 117.807 8.89648 117.375 8.89648C116.918 8.89648 116.563 9.27734 116.563 9.70898V10.166C113.567 10.4961 110.799 12.5781 110.063 16.0312C110.012 16.2852 110.266 16.5898 110.545 16.3359C111.866 14.9395 113.262 14.9902 114.557 17.2754C114.684 17.5039 114.938 17.4785 115.065 17.2754C115.573 16.3613 116.207 15.3965 117.375 15.3965C118.848 15.3965 119.61 17.1484 119.661 17.2754C119.788 17.4785 120.041 17.5039 120.168 17.2754C121.463 14.9902 122.885 14.9395 124.206 16.3359C124.459 16.5898 124.713 16.2852 124.663 16.0312ZM116.563 16.5645V19.8652C116.563 20.0938 116.36 20.2715 116.157 20.2715C115.954 20.2715 115.801 20.1445 115.75 20.0176C115.624 19.5859 115.141 19.3574 114.735 19.5098C114.303 19.6621 114.075 20.1191 114.227 20.5508C114.506 21.3633 115.293 21.8965 116.157 21.8965C117.274 21.8965 118.188 20.9824 118.188 19.8652V16.5645C117.934 16.3613 117.68 16.209 117.375 16.209C117.045 16.2344 116.791 16.3359 116.563 16.5645Z" fill="white"/>
</svg>
