<svg width="15" height="19" viewBox="0 0 15 19" fill="none" xmlns="http://www.w3.org/2000/svg">
<path d="M12.9284 6.33333H12.0236V4.52381C12.0236 1.99048 10.0331 0 7.49981 0C4.96648 0 2.976 1.99048 2.976 4.52381V6.33333H2.07124C1.076 6.33333 0.261719 7.14762 0.261719 8.14286V17.1905C0.261719 18.1857 1.076 19 2.07124 19H12.9284C13.9236 19 14.7379 18.1857 14.7379 17.1905V8.14286C14.7379 7.14762 13.9236 6.33333 12.9284 6.33333ZM7.49981 1.71905C9.03791 1.71905 10.3046 2.98571 10.3046 4.52381V6.33333H4.78553V4.52381H4.69505C4.69505 2.98571 5.96172 1.71905 7.49981 1.71905ZM12.9284 17.1905H2.07124V8.14286H12.9284V17.1905ZM7.49981 14.4762C8.49505 14.4762 9.30934 13.6619 9.30934 12.6667C9.30934 11.6714 8.49505 10.8571 7.49981 10.8571C6.50457 10.8571 5.69029 11.6714 5.69029 12.6667C5.69029 13.6619 6.50457 14.4762 7.49981 14.4762Z" fill="#98A1B9"/>
</svg>
