<svg width="176" height="31" viewBox="0 0 176 31" fill="none" xmlns="http://www.w3.org/2000/svg">
<rect y="14.5117" width="176" height="1.92024" fill="#378BCB"/>
<ellipse cx="90" cy="15.362" rx="16" ry="15.362" fill="#378BCB"/>
<path d="M90 14.877C91.7773 14.877 93.25 13.4297 93.25 11.627C93.25 9.84961 91.7773 8.37695 90 8.37695C88.1973 8.37695 86.75 9.84961 86.75 11.627C86.75 13.4297 88.1973 14.877 90 14.877ZM92.2598 15.6895H91.8281C91.2695 15.9688 90.6602 16.0957 90 16.0957C89.3398 16.0957 88.7051 15.9688 88.1465 15.6895H87.7148C85.8359 15.6895 84.3125 17.2383 84.3125 19.1172V20.1582C84.3125 20.8438 84.8457 21.377 85.5312 21.377H94.4688C95.1289 21.377 95.6875 20.8438 95.6875 20.1582V19.1172C95.6875 17.2383 94.1387 15.6895 92.2598 15.6895Z" fill="white"/>
</svg>
