<svg width="25" height="25" viewBox="0 0 25 25" fill="none" xmlns="http://www.w3.org/2000/svg">
<g clip-path="url(#clip0)">
<path d="M22.6565 10.7179L4.37836 0.269762C4.06324 0.0897619 3.7124 0 3.36157 0C3.35443 0 3.3474 0.000952381 3.34038 0.000952381C3.29324 0.00142857 3.24621 0.00380952 3.19931 0.0075C3.17812 0.00916667 3.15705 0.0114286 3.13586 0.0138095C3.09919 0.0178571 3.06264 0.0229762 3.02621 0.0290476C3.013 0.0313095 2.99967 0.0320238 2.98645 0.0345238L2.98717 0.0354762C2.75943 0.0775 2.53717 0.157738 2.33062 0.277619C1.698 0.644643 1.30859 1.32071 1.30859 2.05202V22.9481C1.30859 23.6794 1.698 24.3555 2.33062 24.7225C2.53705 24.8424 2.75931 24.9227 2.98705 24.9648L2.98645 24.9656C2.99836 24.9679 3.01038 24.9686 3.02217 24.9705C3.06133 24.9771 3.10062 24.9826 3.14002 24.9868C3.15978 24.9889 3.17943 24.9911 3.19919 24.9926C3.2455 24.9963 3.29169 24.9985 3.33812 24.999C3.34597 24.9992 3.35371 25.0001 3.36157 25.0001C3.7124 25.0001 4.06324 24.9104 4.37836 24.7304L22.6565 14.2821C23.2955 13.9168 23.6899 13.2373 23.6899 12.501C23.6899 12.501 23.6899 12.5006 23.6899 12.5005C23.6899 12.5005 23.6899 12.5001 23.6899 12.5C23.6899 12.5 23.6899 12.4996 23.6899 12.4995C23.6899 12.4995 23.6899 12.4992 23.6899 12.499C23.6899 11.7629 23.2955 11.0833 22.6565 10.7179ZM15.4281 8.64298L13.6107 11.0271L8.98693 4.96095L15.4281 8.64298ZM21.7703 12.7318L8.98693 20.039L16.991 9.53833L21.7701 12.2701C21.8529 12.3174 21.9043 12.406 21.9043 12.5008C21.9042 12.5961 21.8528 12.6846 21.7703 12.7318Z" fill="white"/>
</g>
<defs>
<clipPath id="clip0">
<rect width="25" height="25" fill="white"/>
</clipPath>
</defs>
</svg>
