<svg width="18" height="19" viewBox="0 0 18 19" fill="none" xmlns="http://www.w3.org/2000/svg">
<g clip-path="url(#clip0)">
<path d="M13.8128 5.26122C12.4457 5.58734 11.3265 6.1737 10.6469 6.71147L9.79691 7.38408L10.7259 7.94244C11.2504 8.25764 11.6047 8.83275 11.614 9.49431L11.6268 10.4089L12.5212 10.2171C14.46 9.80136 16.2598 10.6545 16.9428 11.9457C17.2757 12.575 17.3708 13.3474 17.0638 14.224C16.7518 15.1149 16.0082 16.1526 14.5914 17.2292C13.7177 17.8931 13.0927 18.0955 12.6856 18.1067C12.3171 18.1168 12.0556 17.9737 11.8468 17.718C11.619 17.4391 11.4521 17.0153 11.3823 16.5194C11.3129 16.0271 11.3492 15.5319 11.4614 15.1547C11.8643 13.7994 11.9208 12.5305 11.7994 11.6695L11.6454 10.5782L10.6867 11.1219C10.426 11.2698 10.1259 11.3541 9.80484 11.3541C9.48463 11.3541 9.18562 11.2704 8.92563 11.1234L8.12477 10.6707L7.84269 11.5464C7.22668 13.4586 5.59003 14.6009 4.14929 14.5525C3.44843 14.529 2.74226 14.2286 2.14515 13.5237C1.53737 12.8063 1.01813 11.637 0.802516 9.85802L0.802514 9.85801C0.669537 8.76103 0.808037 8.10931 1.00444 7.74332C1.18278 7.411 1.43856 7.25528 1.75832 7.20126C2.1082 7.14216 2.55199 7.20746 3.0102 7.39346C3.46509 7.57811 3.87019 7.85627 4.13685 8.14191L4.13686 8.14192C5.09939 9.17293 6.16198 9.85808 6.96407 10.1833L7.98226 10.5961L7.9958 9.49746C8.00396 8.83577 8.35739 8.26011 8.88103 7.94415L9.65482 7.47727L9.05331 6.8028C7.72277 5.31085 7.55492 3.30304 8.32269 2.05822C8.69581 1.45327 9.30828 0.987151 10.2082 0.818257C11.1243 0.64634 12.3837 0.776272 14.0157 1.47632L14.3114 0.787062L14.0157 1.47632C15.0209 1.90753 15.5088 2.35284 15.724 2.7064C15.9202 3.02892 15.9275 3.33459 15.8118 3.64691C15.6861 3.98624 15.406 4.3432 15.0171 4.6509C14.6306 4.9567 14.1897 5.1713 13.8128 5.26122ZM13.8128 5.26122L13.9868 5.99075M13.8128 5.26122L13.9868 5.99075M13.9868 5.99075C13.1151 6.1987 12.3619 6.51916 11.7852 6.85013L13.9868 5.99075ZM11.5461 9.52074C11.5461 8.56056 10.773 7.77029 9.80484 7.77029C8.83665 7.77029 8.06361 8.56056 8.06361 9.52074C8.06361 10.481 8.8366 11.2713 9.80484 11.2713C10.7731 11.2713 11.5461 10.481 11.5461 9.52074Z" stroke="#378BCB" stroke-width="1.5"/>
</g>
<defs>
<clipPath id="clip0">
<rect width="18" height="18.8571" fill="white"/>
</clipPath>
</defs>
</svg>
