<svg xmlns="http://www.w3.org/2000/svg" xmlns:xlink="http://www.w3.org/1999/xlink" width="14" height="14" viewBox="0 0 14 14">
  <defs>
    <clipPath id="clip-path">
      <rect id="Rectangle_580" data-name="Rectangle 580" width="14" height="14" transform="translate(1264 -150)" fill="none"/>
    </clipPath>
  </defs>
  <g id="Mask_Group_103" data-name="Mask Group 103" transform="translate(-1264 150)" clip-path="url(#clip-path)">
    <path id="_" data-name="   " d="M6.25,6.5a3,3,0,1,0-3-3A3.006,3.006,0,0,0,6.25,6.5Zm2.227.773-1.1,4.477-.75-3.187.75-1.312H5.125l.75,1.313-.75,3.188L4,7.273a3.128,3.128,0,0,0-3,3.141v.961A1.111,1.111,0,0,0,2.125,12.5h8.25A1.125,1.125,0,0,0,11.5,11.375v-.961A3.149,3.149,0,0,0,8.477,7.273Zm3.961,38.453H1.563A.555.555,0,0,0,1,46.289v1.875a.542.542,0,0,0,.563.563H12.438A.555.555,0,0,0,13,48.164V46.289A.57.57,0,0,0,12.438,45.727ZM11.875,47.6h-4.1v-.75h4.1Zm.563-5.625H1.563A.555.555,0,0,0,1,42.539v1.875a.542.542,0,0,0,.563.563H12.438A.555.555,0,0,0,13,44.414V42.539A.57.57,0,0,0,12.438,41.977Zm-.562,1.875h-7.1V43.1h7.1Zm.563-5.625H1.563A.555.555,0,0,0,1,38.789v1.875a.542.542,0,0,0,.563.563H12.438A.555.555,0,0,0,13,40.664V38.789A.57.57,0,0,0,12.438,38.227ZM11.875,40.1h-2.6v-.75h2.6ZM10.75,79c0-2.062-2.2-3.75-4.875-3.75C3.18,75.25,1,76.938,1,79a3.134,3.134,0,0,0,.891,2.156,5.5,5.5,0,0,1-.844,1.289A.225.225,0,0,0,1,82.656a.19.19,0,0,0,.188.094,4.05,4.05,0,0,0,2.063-.586,5.924,5.924,0,0,0,2.625.586C8.547,82.75,10.75,81.086,10.75,79Zm2.859,5.156A3.243,3.243,0,0,0,14.5,82a3.933,3.933,0,0,0-3.047-3.469A3.514,3.514,0,0,1,11.5,79c0,2.484-2.531,4.5-5.625,4.5-.258,0-.516,0-.75-.023a5.054,5.054,0,0,0,4.5,2.273,5.822,5.822,0,0,0,2.6-.586,4.071,4.071,0,0,0,2.086.586.157.157,0,0,0,.164-.094.179.179,0,0,0-.047-.211A5.034,5.034,0,0,1,13.609,84.156ZM5.5,117.5a2.625,2.625,0,1,0-2.625-2.625A2.636,2.636,0,0,0,5.5,117.5Zm1.781.75H7.094a3.624,3.624,0,0,1-3.211,0H3.7A2.7,2.7,0,0,0,1,120.969v.656a1.11,1.11,0,0,0,1.125,1.125h6.75A1.125,1.125,0,0,0,10,121.625v-.656A2.721,2.721,0,0,0,7.281,118.25Zm4.969-.75A2.25,2.25,0,1,0,10,115.25,2.251,2.251,0,0,0,12.25,117.5Zm1.125.75h-.094a2.987,2.987,0,0,1-2.086,0h-.07a2.461,2.461,0,0,0-1.312.375,3.46,3.46,0,0,1,.938,2.344v.89c0,.047-.023.094-.023.141h4.148A1.125,1.125,0,0,0,16,120.875,2.651,2.651,0,0,0,13.375,118.25Z" transform="translate(1265.009 -149.5)" fill="#ffffff"/>
  </g>
</svg>
