<svg width="15" height="15" viewBox="0 0 15 15" fill="none" xmlns="http://www.w3.org/2000/svg">
<path d="M11.3164 10.8125H3.44141C3.19531 10.8125 3.00391 11.0312 3.00391 11.25V11.6875C3.00391 11.9336 3.19531 12.125 3.44141 12.125H11.3164C11.5352 12.125 11.7539 11.9336 11.7539 11.6875V11.25C11.7539 11.0312 11.5352 10.8125 11.3164 10.8125ZM12.6289 0.75H2.12891C1.14453 0.75 0.378906 1.54297 0.378906 2.5V13C0.378906 13.9844 1.14453 14.75 2.12891 14.75H12.6289C13.5859 14.75 14.3789 13.9844 14.3789 13V2.5C14.3789 1.54297 13.5859 0.75 12.6289 0.75ZM13.0664 13C13.0664 13.2461 12.8477 13.4375 12.6289 13.4375H2.12891C1.88281 13.4375 1.69141 13.2461 1.69141 13V2.5C1.69141 2.28125 1.88281 2.0625 2.12891 2.0625H12.6289C12.8477 2.0625 13.0664 2.28125 13.0664 2.5V13ZM10.168 3.45703C10.0859 3.375 9.89453 3.375 9.8125 3.45703L8.0625 5.64453C7.95312 5.80859 8.0625 6 8.22656 6H9.10156V9.0625C9.10156 9.30859 9.32031 9.5 9.53906 9.5H10.4141C10.6602 9.5 10.8516 9.30859 10.8516 9.0625V6H11.7266C11.918 6 12.0273 5.80859 11.918 5.64453L10.168 3.45703ZM3.87891 6V9.0625C3.87891 9.30859 4.07031 9.5 4.31641 9.5H5.19141C5.41016 9.5 5.62891 9.30859 5.62891 9.0625V6H6.50391C6.66797 6 6.77734 5.80859 6.66797 5.64453L4.91797 3.45703C4.83594 3.375 4.64453 3.375 4.5625 3.45703L2.8125 5.64453C2.70312 5.80859 2.8125 6 2.97656 6H3.87891Z" fill="#717C99"/>
</svg>
