<svg xmlns="http://www.w3.org/2000/svg" width="14.017" height="12.25" viewBox="0 0 14.017 12.25">
  <path id="Path_196" data-name="Path 196" d="M644.713,17.207a.265.265,0,0,0-.383,0l-2.379,2.352-1.039-1.039a.265.265,0,0,0-.383,0l-.629.629a.265.265,0,0,0,0,.383l1.86,1.887a.264.264,0,0,0,.383,0l3.2-3.2a.293.293,0,0,0,.027-.383Zm-2.078-3.582c-3.883,0-7,2.57-7,5.688a5.019,5.019,0,0,0,1.422,3.473,6.167,6.167,0,0,1-1.258,2,.678.678,0,0,0-.137.711.667.667,0,0,0,.629.383,6.577,6.577,0,0,0,3.8-1.258,8.533,8.533,0,0,0,2.543.383c3.855,0,7-2.543,7-5.687C649.635,16.2,646.49,13.625,642.635,13.625Zm0,10.063a7.125,7.125,0,0,1-2.16-.328l-.629-.191-.52.383a6.111,6.111,0,0,1-1.586.793,5.116,5.116,0,0,0,.547-1.094l.3-.766-.574-.6a3.742,3.742,0,0,1-1.067-2.57c0-2.406,2.543-4.375,5.688-4.375,3.117,0,5.687,1.969,5.687,4.375C648.322,21.746,645.752,23.688,642.635,23.688Z" transform="translate(-635.618 -13.625)" fill="#FFF59F"/>
</svg>
