<svg width="15" height="15" viewBox="0 0 15 15" fill="none" xmlns="http://www.w3.org/2000/svg">
<path d="M13.8047 2.77344L12.3281 1.29688C11.6172 0.585938 10.4414 0.585938 9.73047 1.29688L1.03516 9.9375L0.378906 14.0117C0.296875 14.4492 0.679688 14.832 1.11719 14.75L5.19141 14.0938L13.832 5.39844C14.543 4.6875 14.543 3.51172 13.8047 2.77344ZM3.66016 9.00781L8.30859 4.38672L10.7422 6.82031L6.12109 11.4688V10.3203H4.80859V9.00781H3.66016ZM2.62109 13.3008L1.82812 12.5078L2.18359 10.5117L2.67578 9.99219H3.82422V11.3047H5.13672V12.4531L4.61719 12.9453L2.62109 13.3008ZM12.9844 4.55078L11.6445 5.89062L9.23828 3.48438L10.5781 2.14453C10.8242 1.89844 11.2344 1.89844 11.4805 2.14453L12.957 3.62109C13.2305 3.89453 13.2305 4.30469 12.9844 4.55078Z" fill="#F5F5F5"/>
</svg>
