<svg width="13" height="7" viewBox="0 0 13 7" fill="none" xmlns="http://www.w3.org/2000/svg">
<path d="M12.1328 0.65625L11.6133 0.109375C11.4766 1.40669e-07 11.2578 1.61565e-07 11.1484 0.109375L6.19922 5.05859L1.22266 0.109376C1.11328 1.13058e-06 0.894531 1.15147e-06 0.757813 0.109376L0.238281 0.656251C0.101563 0.79297 0.101563 0.984376 0.238281 1.12109L5.95313 6.86328C6.08984 6.97266 6.28125 6.97266 6.41797 6.86328L12.1328 1.12109C12.2695 0.984375 12.2695 0.792969 12.1328 0.65625Z" fill="#98A1B9"/>
</svg>
