<svg width="82" height="82" viewBox="0 0 82 82" fill="none" xmlns="http://www.w3.org/2000/svg">
<circle cx="41" cy="41" r="41" fill="#27C397"/>
<path d="M41 25.5C32.4375 25.5 25.5 32.5 25.5 41C25.5 49.5625 32.4375 56.5 41 56.5C49.5 56.5 56.5 49.5625 56.5 41C56.5 32.5 49.5 25.5 41 25.5ZM41 54.5C33.5625 54.5 27.5 48.5 27.5 41C27.5 33.625 33.5 27.5 41 27.5C48.375 27.5 54.5 33.5625 54.5 41C54.5 48.4375 48.4375 54.5 41 54.5ZM49.8125 37.375C50.125 37.0625 50.125 36.5625 49.8125 36.3125L49.3125 35.75C49 35.4375 48.5 35.4375 48.25 35.75L38 45.875L33.6875 41.5625C33.4375 41.25 32.9375 41.25 32.625 41.5625L32.125 42.0625C31.8125 42.375 31.8125 42.8125 32.125 43.125L37.5 48.5625C37.75 48.8125 38.25 48.8125 38.5625 48.5625L49.8125 37.375Z" fill="#F5F5F5"/>
</svg>
