<svg width="16" height="16" viewBox="0 0 16 16" fill="none" xmlns="http://www.w3.org/2000/svg">
<path d="M15.5938 7.28125H14.9375C14.8125 5.90625 14.25 4.625 13.4062 3.625L13.875 3.15625C14.0625 3.03125 14.0625 2.78125 13.9062 2.625L13.375 2.09375C13.2188 1.9375 12.9688 1.9375 12.8438 2.125L12.375 2.59375C11.375 1.75 10.0938 1.1875 8.71875 1.0625V0.40625C8.75 0.1875 8.5625 0 8.34375 0H7.625C7.40625 0 7.21875 0.1875 7.25 0.40625V1.0625C5.875 1.1875 4.59375 1.75 3.59375 2.59375L3.125 2.125C3 1.9375 2.75 1.9375 2.59375 2.09375L2.0625 2.625C1.90625 2.78125 1.90625 3.03125 2.09375 3.15625L2.5625 3.625C1.71875 4.625 1.15625 5.90625 1.03125 7.28125H0.375C0.15625 7.25 0 7.4375 0 7.65625V8.375C0 8.59375 0.15625 8.78125 0.375 8.75H1.03125C1.15625 10.125 1.71875 11.4062 2.5625 12.4062L2.09375 12.875C1.90625 13 1.90625 13.25 2.0625 13.4062L2.59375 13.9375C2.75 14.0938 3 14.0938 3.125 13.9062L3.59375 13.4375C4.59375 14.2812 5.875 14.8438 7.25 14.9688V15.625C7.21875 15.8438 7.40625 16 7.625 16H8.34375C8.5625 16 8.75 15.8438 8.71875 15.625V14.9688C10.0938 14.8438 11.375 14.2812 12.375 13.4375L12.8438 13.9062C12.9688 14.0938 13.2188 14.0938 13.375 13.9375L13.9062 13.4062C14.0625 13.25 14.0625 13 13.875 12.875L13.4062 12.4062C14.25 11.4062 14.8125 10.125 14.9375 8.75H15.5938C15.8125 8.78125 16 8.59375 16 8.375V7.65625C16 7.4375 15.8125 7.25 15.5938 7.28125ZM13.4375 7.34375L10.9375 7.40625C10.8438 7.03125 10.6875 6.6875 10.5 6.375L12.3125 4.65625C12.9062 5.40625 13.3125 6.3125 13.4375 7.34375ZM8 9.5C7.15625 9.5 6.5 8.84375 6.5 8C6.5 7.1875 7.15625 6.5 8 6.5C8.8125 6.5 9.5 7.1875 9.5 8C9.5 8.84375 8.8125 9.5 8 9.5ZM11.3438 3.6875L9.625 5.5C9.3125 5.3125 8.96875 5.15625 8.59375 5.0625L8.65625 2.5625C9.6875 2.6875 10.5938 3.09375 11.3438 3.6875ZM7.3125 2.5625L7.375 5.0625C7 5.15625 6.65625 5.3125 6.34375 5.5L4.625 3.6875C5.375 3.09375 6.28125 2.6875 7.3125 2.5625ZM3.65625 4.65625L5.46875 6.375C5.28125 6.6875 5.125 7.03125 5.03125 7.40625L2.53125 7.34375C2.65625 6.3125 3.0625 5.40625 3.65625 4.65625ZM2.53125 8.6875L5.03125 8.625C5.125 9 5.28125 9.34375 5.46875 9.65625L3.65625 11.375C3.0625 10.625 2.65625 9.71875 2.53125 8.6875ZM4.625 12.3438L6.34375 10.5312C6.65625 10.7188 7 10.875 7.375 10.9688L7.3125 13.4688C6.28125 13.3438 5.375 12.9375 4.625 12.3438ZM8.65625 13.4688L8.59375 10.9688C8.96875 10.875 9.3125 10.7188 9.625 10.5312L11.3438 12.3438C10.5938 12.9375 9.6875 13.3438 8.65625 13.4688ZM12.3125 11.375L10.5 9.65625C10.6875 9.34375 10.8438 9 10.9375 8.625L13.4375 8.6875C13.3125 9.71875 12.9062 10.625 12.3125 11.375Z" fill="white"/>
</svg>
