<svg width="17" height="12" viewBox="0 0 17 12" fill="none" xmlns="http://www.w3.org/2000/svg">
<path d="M12.8164 6.125C14.1621 6.125 15.2539 5.0332 15.2539 3.6875C15.2539 2.3418 14.1621 1.25 12.8164 1.25C11.4707 1.25 10.3789 2.3418 10.3789 3.6875C10.3789 5.0332 11.4707 6.125 12.8164 6.125ZM12.8164 2.46875C13.4766 2.46875 14.0352 3.02734 14.0352 3.6875C14.0352 4.37305 13.4766 4.90625 12.8164 4.90625C12.1309 4.90625 11.5977 4.37305 11.5977 3.6875C11.5977 3.02734 12.1309 2.46875 12.8164 2.46875ZM7.53516 6.63281C7.23047 6.63281 6.92578 6.68359 6.62109 6.78516C6.26562 6.88672 5.88477 6.9375 5.47852 6.9375C5.09766 6.9375 4.7168 6.88672 4.36133 6.78516C4.05664 6.68359 3.75195 6.63281 3.44727 6.63281C2.5332 6.63281 1.64453 7.06445 1.11133 7.82617C0.806641 8.30859 0.628906 8.86719 0.628906 9.47656V10.5938C0.628906 11.2793 1.16211 11.8125 1.84766 11.8125H9.16016C9.82031 11.8125 10.3789 11.2793 10.3789 10.5938V9.47656C10.3789 8.86719 10.1758 8.30859 9.87109 7.82617C9.33789 7.06445 8.44922 6.63281 7.53516 6.63281ZM9.16016 10.5938H1.84766V9.47656C1.84766 8.74023 2.30469 8.10547 2.96484 7.87695C3.21875 7.77539 3.49805 7.77539 3.77734 7.87695C4.33594 8.05469 4.91992 8.15625 5.50391 8.15625C6.08789 8.15625 6.64648 8.05469 7.23047 7.87695C7.48438 7.77539 7.76367 7.77539 8.04297 7.87695C8.67773 8.10547 9.16016 8.74023 9.16016 9.47656V10.5938ZM5.50391 6.125C7.05273 6.125 8.34766 4.85547 8.34766 3.28125C8.34766 1.73242 7.05273 0.4375 5.50391 0.4375C3.92969 0.4375 2.66016 1.73242 2.66016 3.28125C2.66016 4.85547 3.92969 6.125 5.50391 6.125ZM5.50391 1.65625C6.39258 1.65625 7.12891 2.39258 7.12891 3.28125C7.12891 4.19531 6.39258 4.90625 5.50391 4.90625C4.58984 4.90625 3.87891 4.19531 3.87891 3.28125C3.87891 2.39258 4.58984 1.65625 5.50391 1.65625ZM16.4473 7.69922C16.0156 7.03906 15.2793 6.68359 14.4922 6.68359C13.8066 6.68359 13.6289 6.9375 12.8164 6.9375C12.0039 6.9375 11.8262 6.68359 11.1152 6.68359C10.7598 6.68359 10.4551 6.75977 10.1504 6.91211C10.2773 7.03906 10.4297 7.2168 10.5566 7.36914C10.6582 7.54688 10.7598 7.75 10.8613 7.92773C10.9375 7.92773 11.0137 7.90234 11.1152 7.90234C11.5469 7.90234 11.8516 8.15625 12.8164 8.15625C13.7559 8.15625 14.0605 7.90234 14.4922 7.90234C14.8984 7.90234 15.2539 8.08008 15.4316 8.35938C15.584 8.5625 15.6602 8.79102 15.6602 9.04492V9.78125H11.1914V10.5938C11.1914 10.7461 11.166 10.873 11.1406 11H15.8633C16.4219 11 16.8789 10.5684 16.8789 9.98438V9.04492C16.8789 8.53711 16.7266 8.08008 16.4473 7.69922Z" fill="#ffffff"/>
</svg>
